score,count
4.85,1
6.25,1
6.55,1
6.75,1
6.8,1
7.0,1
7.05,2
7.15,2
7.2,1
7.3,1
7.4,1
7.45,1
7.55,1
7.65,1
7.7,1
7.8,1
7.9,4
8.05,1
8.2,1
8.25,1
8.3,4
8.35,2
8.4,1
8.45,2
8.5,1
8.6,1
8.75,1
8.8,4
8.85,1
8.9,2
8.95,5
9.0,3
9.05,2
9.1,1
9.15,5
9.2,1
9.25,6
9.3,4
9.45,5
9.5,4
9.55,1
9.6,3
9.65,4
9.7,2
9.75,2
9.8,3
9.85,3
9.9,8
9.95,6
10.0,5
10.05,7
10.1,4
10.15,2
10.2,4
10.25,9
10.3,4
10.35,7
10.4,5
10.45,9
10.5,8
10.55,6
10.6,4
10.65,8
10.7,5
10.75,8
10.8,9
10.85,8
10.9,9
10.95,11
11.0,7
11.05,7
11.1,10
11.15,6
11.2,13
11.25,13
11.3,14
11.35,16
11.4,21
11.45,12
11.5,18
11.55,20
11.6,18
11.65,17
11.7,18
11.75,17
11.8,14
11.85,14
11.9,22
11.95,18
12.0,20
12.05,18
12.1,33
12.15,23
12.2,24
12.25,26
12.3,23
12.35,21
12.4,25
12.45,24
12.5,20
12.55,28
12.6,28
12.65,22
12.7,24
12.75,32
12.8,32
12.85,26
12.9,37
12.95,38
13.0,38
13.05,38
13.1,44
13.15,40
13.2,43
13.25,42
13.3,43
13.35,47
13.4,65
13.45,45
13.5,52
13.55,62
13.6,55
13.65,58
13.7,66
13.75,53
13.8,47
13.85,57
13.9,69
13.95,67
14.0,62
14.05,87
14.1,72
14.15,64
14.2,79
14.25,74
14.3,91
14.35,105
14.4,72
14.45,78
14.5,77
14.55,104
14.6,101
14.65,82
14.7,102
14.75,102
14.8,106
14.85,93
14.9,108
14.95,110
15.0,125
15.05,106
15.1,94
15.15,102
15.2,109
15.25,139
15.3,136
15.35,118
15.4,136
15.45,128
15.5,132
15.55,132
15.6,143
15.65,169
15.7,136
15.75,153
15.8,168
15.85,171
15.9,151
15.95,166
16.0,177
16.05,166
16.1,200
16.15,163
16.2,170
16.25,193
16.3,177
16.35,228
16.4,200
16.45,205
16.5,186
16.55,239
16.6,224
16.65,233
16.7,206
16.75,219
16.8,229
16.85,237
16.9,239
16.95,219
17.0,254
17.05,235
17.1,243
17.15,292
17.2,268
17.25,263
17.3,250
17.35,252
17.4,281
17.45,331
17.5,285
17.55,280
17.6,304
17.65,305
17.7,312
17.75,327
17.8,322
17.85,321
17.9,302
17.95,282
18.0,313
18.05,332
18.1,384
18.15,355
18.2,336
18.25,382
18.3,386
18.35,400
18.4,384
18.45,403
18.5,374
18.55,369
18.6,417
18.65,403
18.7,427
18.75,468
18.8,411
18.85,439
18.9,453
18.95,438
19.0,406
19.05,462
19.1,450
19.15,492
19.2,447
19.25,454
19.3,492
19.35,462
19.4,471
19.45,437
19.5,492
19.55,440
19.6,478
19.65,457
19.7,468
19.75,537
19.8,517
19.85,470
19.9,509
19.95,508
20.0,511
20.05,544
20.1,490
20.15,537
20.2,539
20.25,529
20.3,493
20.35,535
20.4,483
20.45,531
20.5,523
20.55,565
20.6,546
20.65,543
20.7,533
20.75,577
20.8,538
20.85,542
20.9,514
20.95,536
21.0,547
21.05,577
21.1,538
21.15,581
21.2,524
21.25,559
21.3,526
21.35,584
21.4,575
21.45,548
21.5,541
21.55,556
21.6,587
21.65,570
21.7,537
21.75,507
21.8,564
21.85,590
21.9,579
21.95,589
22.0,570
22.05,547
22.1,562
22.15,576
22.2,568
22.25,592
22.3,563
22.35,564
22.4,546
22.45,560
22.5,571
22.55,563
22.6,540
22.65,595
22.7,568
22.75,577
22.8,535
22.85,556
22.9,524
22.95,581
23.0,547
23.05,572
23.1,553
23.15,581
23.2,607
23.25,552
23.3,615
23.35,546
23.4,555
23.45,541
23.5,526
23.55,545
23.6,603
23.65,571
23.7,542
23.75,585
23.8,535
23.85,533
23.9,589
23.95,539
24.0,537
24.05,551
24.1,505
24.15,549
24.2,535
24.25,554
24.3,568
24.35,597
24.4,578
24.45,529
24.5,550
24.55,561
24.6,540
24.65,577
24.7,589
24.75,569
24.8,530
24.85,578
24.9,549
24.95,543
25.0,507
25.05,547
25.1,502
25.15,538
25.2,488
25.25,554
25.3,535
25.35,532
25.4,537
25.45,488
25.5,475
25.55,521
25.6,528
25.65,511
25.7,421
25.75,478
25.8,487
25.85,487
25.9,413
25.95,382
26.0,479
26.05,437
26.1,381
26.15,391
26.2,434
26.25,397
26.3,341
26.35,345
26.4,362
26.45,399
26.5,384
26.55,304
26.6,316
26.65,343
26.7,307
26.75,267
26.8,241
26.85,276
26.9,279
26.95,228
27.0,185
27.05,205
27.1,217
27.15,221
27.2,148
27.25,158
27.3,157
27.35,153
27.4,132
27.45,104
27.5,100
27.55,132
27.6,121
27.65,89
27.7,75
27.75,101
27.8,90
27.85,60
27.9,50
27.95,63
28.0,65
28.05,49
28.1,18
28.15,28
28.2,33
28.25,26
28.3,19
28.35,10
28.4,11
28.45,22
28.5,10
28.55,8
28.6,7
28.65,10
28.7,9
28.75,6
28.8,2
28.85,5
28.9,3
28.95,1
29.05,3
29.1,4
29.15,3
29.3,1
29.4,1
29.55,1
