score,count
5.35,1
5.5,1
6.1,1
6.2,1
6.3,1
6.4,3
6.45,1
6.9,1
7.0,1
7.15,1
7.2,1
7.25,1
7.3,1
7.35,1
7.4,1
7.45,1
7.55,1
7.6,1
7.7,1
7.8,1
7.9,1
7.95,3
8.1,3
8.15,2
8.2,1
8.25,2
8.3,2
8.35,3
8.45,1
8.5,4
8.55,4
8.6,5
8.65,9
8.7,2
8.75,2
8.8,4
8.85,3
8.9,6
8.95,3
9.0,8
9.05,2
9.1,6
9.15,5
9.2,6
9.25,4
9.3,5
9.35,5
9.4,4
9.45,6
9.5,6
9.55,13
9.6,8
9.65,7
9.7,7
9.75,6
9.8,15
9.85,5
9.9,13
9.95,8
10.0,6
10.05,10
10.1,10
10.15,11
10.2,14
10.25,15
10.3,16
10.35,9
10.4,11
10.45,16
10.5,13
10.55,14
10.6,11
10.65,9
10.7,15
10.75,16
10.8,26
10.85,25
10.9,29
10.95,21
11.0,23
11.05,28
11.1,18
11.15,35
11.2,25
11.25,27
11.3,26
11.35,21
11.4,25
11.45,26
11.5,33
11.55,40
11.6,25
11.65,27
11.7,30
11.75,40
11.8,24
11.85,45
11.9,47
11.95,43
12.0,34
12.05,39
12.1,45
12.15,58
12.2,50
12.25,51
12.3,48
12.35,54
12.4,43
12.45,62
12.5,61
12.55,45
12.6,66
12.65,63
12.7,58
12.75,68
12.8,63
12.85,66
12.9,72
12.95,70
13.0,65
13.05,81
13.1,74
13.15,78
13.2,83
13.25,81
13.3,92
13.35,98
13.4,93
13.45,85
13.5,103
13.55,112
13.6,120
13.65,97
13.7,102
13.75,103
13.8,130
13.85,121
13.9,120
13.95,126
14.0,131
14.05,124
14.1,160
14.15,107
14.2,126
14.25,145
14.3,165
14.35,126
14.4,183
14.45,153
14.5,155
14.55,173
14.6,168
14.65,158
14.7,179
14.75,205
14.8,171
14.85,196
14.9,183
14.95,199
15.0,204
15.05,183
15.1,200
15.15,217
15.2,220
15.25,206
15.3,199
15.35,250
15.4,189
15.45,235
15.5,264
15.55,243
15.6,271
15.65,265
15.7,261
15.75,280
15.8,245
15.85,296
15.9,270
15.95,293
16.0,316
16.05,290
16.1,337
16.15,278
16.2,325
16.25,339
16.3,305
16.35,292
16.4,308
16.45,337
16.5,341
16.55,317
16.6,310
16.65,368
16.7,349
16.75,381
16.8,368
16.85,376
16.9,380
16.95,332
17.0,402
17.05,427
17.1,392
17.15,426
17.2,444
17.25,421
17.3,384
17.35,434
17.4,429
17.45,414
17.5,468
17.55,432
17.6,447
17.65,440
17.7,486
17.75,490
17.8,483
17.85,471
17.9,457
17.95,503
18.0,514
18.05,468
18.1,512
18.15,520
18.2,503
18.25,507
18.3,495
18.35,525
18.4,549
18.45,541
18.5,583
18.55,539
18.6,587
18.65,537
18.7,550
18.75,592
18.8,575
18.85,539
18.9,570
18.95,577
19.0,576
19.05,597
19.1,568
19.15,614
19.2,614
19.25,614
19.3,643
19.35,631
19.4,614
19.45,591
19.5,664
19.55,617
19.6,627
19.65,647
19.7,596
19.75,705
19.8,619
19.85,669
19.9,681
19.95,681
20.0,713
20.05,681
20.1,708
20.15,706
20.2,755
20.25,688
20.3,677
20.35,717
20.4,751
20.45,700
20.5,764
20.55,699
20.6,686
20.65,720
20.7,711
20.75,725
20.8,751
20.85,738
20.9,683
20.95,673
21.0,771
21.05,752
21.1,717
21.15,723
21.2,730
21.25,709
21.3,761
21.35,785
21.4,771
21.45,767
21.5,794
21.55,784
21.6,679
21.65,797
21.7,754
21.75,791
21.8,800
21.85,791
21.9,748
21.95,753
22.0,745
22.05,742
22.1,729
22.15,750
22.2,717
22.25,815
22.3,759
22.35,748
22.4,752
22.45,759
22.5,779
22.55,775
22.6,760
22.65,758
22.7,799
22.75,731
22.8,787
22.85,767
22.9,795
22.95,718
23.0,723
23.05,758
23.1,721
23.15,723
23.2,787
23.25,735
23.3,771
23.35,721
23.4,710
23.45,739
23.5,724
23.55,695
23.6,659
23.65,687
23.7,728
23.75,679
23.8,660
23.85,699
23.9,645
23.95,668
24.0,684
24.05,719
24.1,642
24.15,667
24.2,672
24.25,646
24.3,663
24.35,633
24.4,610
24.45,593
24.5,595
24.55,612
24.6,602
24.65,558
24.7,585
24.75,539
24.8,568
24.85,578
24.9,563
24.95,524
25.0,519
25.05,537
25.1,533
25.15,527
25.2,514
25.25,474
25.3,434
25.35,474
25.4,474
25.45,438
25.5,382
25.55,399
25.6,432
25.65,379
25.7,354
25.75,388
25.8,394
25.85,390
25.9,305
25.95,308
26.0,330
26.05,338
26.1,274
26.15,257
26.2,257
26.25,301
26.3,246
26.35,195
26.4,230
26.45,234
26.5,201
26.55,182
26.6,187
26.65,187
26.7,193
26.75,137
26.8,124
26.85,168
26.9,147
26.95,100
27.0,81
27.05,98
27.1,102
27.15,89
27.2,67
27.25,68
27.3,70
27.35,58
27.4,50
27.45,33
27.5,51
27.55,56
27.6,44
27.65,33
27.7,32
27.75,45
27.8,41
27.85,18
27.9,18
27.95,20
28.0,27
28.05,13
28.1,4
28.15,6
28.2,11
28.25,13
28.3,4
28.35,3
28.4,11
28.45,7
28.5,4
28.55,2
28.6,1
28.65,4
28.7,3
28.8,1
28.85,1
28.9,1
29.15,1
