score,count
5.1,1
5.2,1
5.3,1
5.5,1
5.7,1
5.85,1
6.5,1
6.55,1
6.7,1
6.75,1
6.8,1
6.85,2
6.9,1
7.0,1
7.05,2
7.1,1
7.2,2
7.25,4
7.3,2
7.35,2
7.4,7
7.45,3
7.5,4
7.55,1
7.65,2
7.7,1
7.75,3
7.8,2
7.85,2
7.9,5
7.95,4
8.0,5
8.05,2
8.1,3
8.15,5
8.2,4
8.25,1
8.3,5
8.35,6
8.4,5
8.45,4
8.5,2
8.55,3
8.6,8
8.65,2
8.7,5
8.75,6
8.8,3
8.85,7
8.9,5
8.95,2
9.0,2
9.05,5
9.1,6
9.15,11
9.2,6
9.25,8
9.3,10
9.35,14
9.4,5
9.45,13
9.5,2
9.55,12
9.6,11
9.65,12
9.7,13
9.75,10
9.8,21
9.85,25
9.9,20
9.95,6
10.0,16
10.05,14
10.1,22
10.15,11
10.2,14
10.25,10
10.3,11
10.35,21
10.4,12
10.45,18
10.5,30
10.55,16
10.6,16
10.65,14
10.7,18
10.75,23
10.8,18
10.85,26
10.9,13
10.95,28
11.0,24
11.05,26
11.1,17
11.15,33
11.2,15
11.25,29
11.3,33
11.35,27
11.4,29
11.45,36
11.5,28
11.55,38
11.6,32
11.65,38
11.7,40
11.75,47
11.8,40
11.85,37
11.9,37
11.95,41
12.0,47
12.05,47
12.1,47
12.15,50
12.2,39
12.25,54
12.3,49
12.35,60
12.4,59
12.45,51
12.5,69
12.55,66
12.6,56
12.65,76
12.7,61
12.75,71
12.8,75
12.85,75
12.9,57
12.95,73
13.0,74
13.05,90
13.1,88
13.15,83
13.2,86
13.25,89
13.3,95
13.35,71
13.4,112
13.45,92
13.5,105
13.55,109
13.6,101
13.65,99
13.7,121
13.75,110
13.8,125
13.85,109
13.9,132
13.95,139
14.0,128
14.05,153
14.1,132
14.15,132
14.2,152
14.25,146
14.3,175
14.35,146
14.4,134
14.45,165
14.5,193
14.55,149
14.6,171
14.65,150
14.7,149
14.75,173
14.8,194
14.85,201
14.9,184
14.95,199
15.0,207
15.05,210
15.1,202
15.15,200
15.2,208
15.25,224
15.3,216
15.35,205
15.4,238
15.45,260
15.5,233
15.55,237
15.6,250
15.65,261
15.7,272
15.75,245
15.8,268
15.85,264
15.9,315
15.95,264
16.0,293
16.05,284
16.1,292
16.15,326
16.2,307
16.25,309
16.3,318
16.35,319
16.4,303
16.45,326
16.5,356
16.55,324
16.6,349
16.65,331
16.7,341
16.75,373
16.8,359
16.85,405
16.9,378
16.95,377
17.0,363
17.05,409
17.1,423
17.15,426
17.2,419
17.25,516
17.3,459
17.35,459
17.4,419
17.45,446
17.5,418
17.55,461
17.6,454
17.65,443
17.7,448
17.75,516
17.8,518
17.85,494
17.9,554
17.95,492
18.0,541
18.05,575
18.1,534
18.15,522
18.2,535
18.25,565
18.3,539
18.35,538
18.4,603
18.45,609
18.5,573
18.55,617
18.6,584
18.65,594
18.7,593
18.75,582
18.8,662
18.85,620
18.9,635
18.95,659
19.0,636
19.05,680
19.1,689
19.15,744
19.2,695
19.25,680
19.3,710
19.35,710
19.4,731
19.45,751
19.5,758
19.55,771
19.6,746
19.65,755
19.7,762
19.75,823
19.8,748
19.85,798
19.9,762
19.95,831
20.0,800
20.05,842
20.1,784
20.15,829
20.2,816
20.25,827
20.3,861
20.35,855
20.4,862
20.45,858
20.5,839
20.55,857
20.6,913
20.65,894
20.7,906
20.75,903
20.8,873
20.85,891
20.9,907
20.95,968
21.0,929
21.05,925
21.1,959
21.15,982
21.2,901
21.25,920
21.3,952
21.35,982
21.4,887
21.45,967
21.5,850
21.55,949
21.6,909
21.65,972
21.7,1005
21.75,933
21.8,970
21.85,1002
21.9,930
21.95,898
22.0,933
22.05,937
22.1,932
22.15,875
22.2,980
22.25,979
22.3,967
22.35,926
22.4,981
22.45,936
22.5,964
22.55,921
22.6,940
22.65,890
22.7,916
22.75,916
22.8,846
22.85,824
22.9,913
22.95,866
23.0,871
23.05,846
23.1,871
23.15,856
23.2,868
23.25,851
23.3,743
23.35,767
23.4,833
23.45,824
23.5,744
23.55,737
23.6,716
23.65,774
23.7,745
23.75,705
23.8,646
23.85,713
23.9,700
23.95,731
24.0,639
24.05,633
24.1,638
24.15,648
24.2,561
24.25,568
24.3,544
24.35,592
24.4,549
24.45,466
24.5,441
24.55,511
24.6,530
24.65,440
24.7,366
24.75,405
24.8,428
24.85,463
24.9,373
24.95,286
25.0,340
25.05,388
25.1,373
25.15,260
25.2,250
25.25,288
25.3,313
25.35,249
25.4,199
25.45,204
25.5,235
25.55,234
25.6,184
25.65,133
25.7,150
25.75,192
25.8,180
25.85,124
25.9,91
25.95,126
26.0,139
26.05,117
26.1,85
26.15,75
26.2,74
26.25,106
26.3,69
26.35,62
26.4,60
26.45,76
26.5,78
26.55,42
26.6,33
26.65,46
26.7,49
26.75,40
26.8,22
26.85,16
26.9,29
26.95,30
27.0,27
27.05,13
27.1,21
27.15,15
27.2,26
27.25,14
27.3,5
27.35,11
27.4,14
27.45,19
27.5,3
27.55,5
27.6,11
27.65,15
27.7,6
27.75,7
27.85,1
27.9,8
27.95,4
28.0,3
28.05,1
28.1,4
28.15,4
28.2,4
28.25,2
28.3,3
28.35,3
28.4,2
28.45,1
28.55,1
28.6,1
29.05,1
29.1,1
