score,count
5.35,1
5.65,1
5.7,1
5.85,2
6.0,2
6.15,1
6.25,1
6.3,1
6.35,1
6.4,2
6.45,2
6.5,1
6.6,1
6.7,2
6.8,1
6.85,2
6.9,2
6.95,1
7.0,1
7.05,3
7.1,1
7.15,3
7.2,4
7.25,1
7.3,3
7.4,4
7.45,3
7.5,1
7.6,3
7.65,3
7.7,4
7.75,2
7.8,2
7.85,7
7.9,1
7.95,4
8.0,7
8.05,7
8.1,1
8.15,1
8.2,7
8.25,4
8.3,3
8.35,6
8.4,10
8.45,3
8.5,2
8.55,10
8.6,6
8.65,6
8.7,2
8.75,6
8.8,11
8.85,7
8.9,6
8.95,5
9.0,6
9.05,7
9.1,7
9.15,2
9.2,7
9.25,10
9.3,9
9.35,3
9.4,3
9.45,5
9.5,5
9.55,4
9.6,8
9.65,8
9.7,7
9.75,7
9.8,10
9.85,10
9.9,14
9.95,5
10.0,10
10.05,9
10.1,10
10.15,10
10.2,6
10.25,10
10.3,6
10.35,9
10.4,8
10.45,8
10.5,9
10.55,9
10.6,7
10.65,12
10.7,11
10.75,15
10.8,17
10.85,14
10.9,9
10.95,5
11.0,12
11.05,13
11.1,20
11.15,16
11.2,17
11.25,12
11.3,18
11.35,15
11.4,13
11.45,18
11.5,17
11.55,17
11.6,18
11.65,14
11.7,9
11.75,23
11.8,14
11.85,15
11.9,24
11.95,29
12.0,19
12.05,23
12.1,25
12.15,30
12.2,26
12.25,17
12.3,25
12.35,30
12.4,25
12.45,36
12.5,19
12.55,26
12.6,27
12.65,26
12.7,29
12.75,31
12.8,33
12.85,28
12.9,35
12.95,34
13.0,33
13.05,35
13.1,30
13.15,45
13.2,35
13.25,42
13.3,44
13.35,36
13.4,51
13.45,36
13.5,43
13.55,44
13.6,37
13.65,55
13.7,45
13.75,39
13.8,49
13.85,46
13.9,46
13.95,49
14.0,57
14.05,45
14.1,54
14.15,65
14.2,51
14.25,61
14.3,70
14.35,65
14.4,69
14.45,67
14.5,68
14.55,67
14.6,68
14.65,66
14.7,75
14.75,76
14.8,83
14.85,63
14.9,71
14.95,62
15.0,59
15.05,72
15.1,91
15.15,74
15.2,74
15.25,84
15.3,87
15.35,80
15.4,84
15.45,79
15.5,82
15.55,102
15.6,96
15.65,103
15.7,99
15.75,84
15.8,110
15.85,93
15.9,117
15.95,95
16.0,89
16.05,103
16.1,136
16.15,109
16.2,117
16.25,128
16.3,120
16.35,108
16.4,123
16.45,111
16.5,129
16.55,137
16.6,131
16.65,137
16.7,149
16.75,129
16.8,151
16.85,157
16.9,131
16.95,139
17.0,139
17.05,166
17.1,148
17.15,165
17.2,154
17.25,159
17.3,170
17.35,160
17.4,182
17.45,171
17.5,177
17.55,186
17.6,173
17.65,182
17.7,174
17.75,211
17.8,167
17.85,179
17.9,219
17.95,184
18.0,194
18.05,194
18.1,226
18.15,221
18.2,227
18.25,219
18.3,227
18.35,207
18.4,192
18.45,234
18.5,252
18.55,253
18.6,253
18.65,233
18.7,248
18.75,265
18.8,264
18.85,232
18.9,277
18.95,255
19.0,293
19.05,273
19.1,284
19.15,296
19.2,291
19.25,291
19.3,302
19.35,305
19.4,332
19.45,328
19.5,316
19.55,312
19.6,320
19.65,315
19.7,301
19.75,316
19.8,322
19.85,350
19.9,354
19.95,355
20.0,348
20.05,363
20.1,402
20.15,317
20.2,356
20.25,371
20.3,378
20.35,405
20.4,387
20.45,358
20.5,399
20.55,417
20.6,383
20.65,426
20.7,379
20.75,394
20.8,414
20.85,425
20.9,417
20.95,389
21.0,399
21.05,397
21.1,421
21.15,418
21.2,415
21.25,424
21.3,459
21.35,422
21.4,452
21.45,389
21.5,448
21.55,443
21.6,461
21.65,431
21.7,427
21.75,436
21.8,461
21.85,467
21.9,478
21.95,441
22.0,492
22.05,481
22.1,437
22.15,435
22.2,479
22.25,467
22.3,486
22.35,474
22.4,472
22.45,447
22.5,466
22.55,445
22.6,442
22.65,447
22.7,482
22.75,515
22.8,490
22.85,419
22.9,479
22.95,519
23.0,521
23.05,436
23.1,445
23.15,460
23.2,433
23.25,458
23.3,429
23.35,440
23.4,494
23.45,455
23.5,453
23.55,481
23.6,436
23.65,439
23.7,436
23.75,435
23.8,430
23.85,451
23.9,445
23.95,452
24.0,407
24.05,378
24.1,415
24.15,414
24.2,370
24.25,371
24.3,389
24.35,405
24.4,418
24.45,321
24.5,360
24.55,366
24.6,386
24.65,303
24.7,316
24.75,313
24.8,378
24.85,324
24.9,266
24.95,253
25.0,278
25.05,309
25.1,273
25.15,207
25.2,197
25.25,262
25.3,291
25.35,235
25.4,178
25.45,175
25.5,220
25.55,227
25.6,207
25.65,151
25.7,175
25.75,219
25.8,192
25.85,121
25.9,100
25.95,145
26.0,186
26.05,138
26.1,96
26.15,96
26.2,115
26.25,140
26.3,100
26.35,75
26.4,70
26.45,93
26.5,110
26.55,64
26.6,41
26.65,72
26.7,109
26.75,57
26.8,52
26.85,31
26.9,59
26.95,63
27.0,58
27.05,24
27.1,27
27.15,53
27.2,47
27.25,37
27.3,26
27.35,13
27.4,31
27.45,26
27.5,23
27.55,6
27.6,11
27.65,24
27.7,17
27.75,7
27.8,6
27.85,11
27.9,11
27.95,10
28.0,4
28.05,7
28.1,11
28.15,15
28.2,10
28.25,2
28.3,2
28.35,5
28.4,5
28.5,1
28.6,1
28.65,4
28.7,1
28.75,2
28.8,2
28.85,2
28.9,1
29.0,1
29.05,1
29.1,2
29.15,1
29.35,1
