score,count
2.25,1
3.0,1
4.0,2
4.25,5
4.5,3
4.75,2
5.0,12
5.25,11
5.5,19
5.75,28
6.0,42
6.25,60
6.5,84
6.75,125
6.92,1
7.0,149
7.25,203
7.33,1
7.5,245
7.75,268
7.83,2
8.0,377
8.08,1
8.17,2
8.25,397
8.33,2
8.41,1
8.5,527
8.67,2
8.75,570
8.83,2
8.91,1
8.92,1
9.0,639
9.08,2
9.16,2
9.17,2
9.25,837
9.33,3
9.41,1
9.5,883
9.66,1
9.67,3
9.75,1071
9.83,3
9.91,1
9.92,1
10.0,1293
10.08,4
10.16,1
10.17,3
10.25,1459
10.33,3
10.4,1
10.41,2
10.42,4
10.5,1767
10.58,2
10.66,1
10.67,1
10.75,1939
10.8,1
10.83,12
10.9,1
10.91,2
10.92,2
11.0,2193
11.05,1
11.08,5
11.16,3
11.17,8
11.18,1
11.25,2654
11.33,13
11.4,1
11.41,3
11.42,9
11.43,1
11.5,2826
11.58,8
11.6,1
11.66,5
11.67,11
11.74,1
11.75,3468
11.83,16
11.91,2
11.92,10
12.0,3755
12.08,18
12.1,1
12.16,3
12.17,6
12.2,1
12.25,4239
12.27,1
12.33,15
12.41,1
12.42,14
12.45,1
12.5,4809
12.51,1
12.55,1
12.58,21
12.66,5
12.67,13
12.75,5150
12.8,2
12.83,28
12.9,1
12.91,2
12.92,18
13.0,5845
13.08,23
13.11,1
13.16,8
13.17,23
13.25,6444
13.31,1
13.33,11
13.35,2
13.41,2
13.42,19
13.45,1
13.5,7058
13.52,1
13.58,26
13.65,1
13.66,7
13.67,23
13.75,7811
13.83,35
13.9,1
13.91,7
13.92,28
13.95,3
14.0,8512
14.05,1
14.08,40
14.1,1
14.16,9
14.17,24
14.24,1
14.25,9065
14.28,1
14.3,1
14.33,31
14.34,1
14.41,4
14.42,36
14.48,1
14.5,9905
14.55,2
14.58,33
14.65,1
14.66,7
14.67,23
14.7,1
14.75,10606
14.8,1
14.81,1
14.82,1
14.83,39
14.85,1
14.9,2
14.91,8
14.92,36
14.95,1
14.96,1
14.97,1
15.0,11463
15.03,1
15.05,2
15.08,47
15.1,2
15.15,2
15.16,11
15.17,39
15.25,12091
15.28,1
15.33,34
15.35,1
15.4,2
15.41,2
15.42,29
15.45,1
15.5,12713
15.55,2
15.56,1
15.57,1
15.58,45
15.6,1
15.66,7
15.67,42
15.73,1
15.75,13447
15.83,48
15.85,1
15.9,1
15.91,15
15.92,39
15.93,1
16.0,14220
16.05,1
16.08,58
16.1,5
16.15,3
16.16,8
16.17,34
16.25,14531
16.27,1
16.3,2
16.33,53
16.35,2
16.4,2
16.41,8
16.42,44
16.43,1
16.44,1
16.45,3
16.47,1
16.48,1
16.5,15126
16.55,1
16.57,1
16.58,61
16.63,1
16.65,2
16.66,2
16.67,32
16.68,1
16.7,1
16.73,1
16.75,15484
16.8,2
16.83,48
16.84,1
16.85,2
16.91,7
16.92,46
16.95,1
16.96,1
16.98,1
17.0,16126
17.05,2
17.08,49
17.09,1
17.16,11
17.17,28
17.25,16283
17.3,2
17.33,39
17.41,11
17.42,48
17.45,1
17.46,1
17.5,16528
17.51,1
17.55,4
17.56,1
17.58,51
17.6,2
17.62,1
17.63,1
17.66,14
17.67,42
17.68,1
17.7,2
17.75,16746
17.8,1
17.83,61
17.85,1
17.91,10
17.92,40
17.95,1
17.96,1
17.98,1
18.0,16916
18.03,1
18.05,1
18.08,58
18.1,1
18.16,11
18.17,29
18.18,1
18.25,16764
18.3,3
18.33,55
18.35,1
18.41,11
18.42,37
18.43,1
18.48,1
18.5,16771
18.55,2
18.58,55
18.6,1
18.66,8
18.67,40
18.7,1
18.73,1
18.75,16617
18.8,3
18.83,58
18.85,2
18.91,10
18.92,56
19.0,16493
19.05,5
19.06,1
19.08,55
19.1,3
19.13,1
19.15,3
19.16,11
19.17,33
19.2,2
19.25,16312
19.3,4
19.33,41
19.4,2
19.41,5
19.42,31
19.45,1
19.5,16287
19.55,1
19.58,35
19.6,1
19.66,8
19.67,23
19.68,1
19.7,2
19.75,15498
19.79,1
19.82,1
19.83,34
19.91,6
19.92,32
19.95,2
20.0,15176
20.08,34
20.1,1
20.15,1
20.16,6
20.17,30
20.25,14802
20.28,1
20.3,1
20.33,37
20.4,1
20.41,5
20.42,32
20.45,1
20.46,1
20.5,14477
20.52,1
20.58,44
20.6,2
20.65,1
20.66,6
20.67,33
20.75,13890
20.8,2
20.83,35
20.85,1
20.87,1
20.9,1
20.91,3
20.92,27
20.95,2
21.0,13074
21.05,2
21.08,22
21.09,1
21.15,1
21.16,7
21.17,23
21.2,2
21.25,12311
21.33,34
21.4,4
21.41,5
21.42,17
21.5,11803
21.55,1
21.58,28
21.66,5
21.67,22
21.7,1
21.75,10983
21.8,1
21.83,36
21.91,4
21.92,26
21.95,1
22.0,10480
22.08,25
22.1,1
22.15,1
22.16,4
22.17,14
22.24,1
22.25,9757
22.3,2
22.33,25
22.41,3
22.42,21
22.45,1
22.5,9105
22.58,18
22.66,1
22.67,13
22.75,8467
22.8,1
22.82,1
22.83,22
22.85,1
22.88,1
22.91,3
22.92,15
23.0,7861
23.07,2
23.08,15
23.16,3
23.17,13
23.25,7250
23.33,13
23.41,1
23.42,9
23.49,1
23.5,6653
23.58,18
23.66,4
23.67,12
23.75,6134
23.77,1
23.83,10
23.91,1
23.92,5
23.95,1
24.0,5400
24.08,8
24.1,1
24.16,1
24.17,11
24.2,1
24.25,4919
24.33,8
24.41,2
24.42,7
24.5,4488
24.58,12
24.66,3
24.67,6
24.75,4017
24.83,5
24.91,1
24.92,3
24.95,1
25.0,3553
25.08,4
25.15,2
25.16,1
25.17,2
25.24,1
25.25,2977
25.33,4
25.42,1
25.5,2717
25.58,3
25.66,1
25.67,3
25.75,2475
25.83,2
25.92,1
26.0,2099
26.08,3
26.17,2
26.25,1808
26.3,1
26.35,1
26.42,1
26.5,1463
26.66,1
26.75,1160
26.92,1
27.0,945
27.08,2
27.25,676
27.5,527
27.75,335
28.0,249
28.25,120
28.5,68
28.75,27
29.0,10
29.25,2
