score,count
5.0,1
5.5,2
5.75,3
6.0,4
6.25,7
6.5,9
6.75,14
7.0,8
7.25,18
7.5,25
7.75,21
7.83,1
8.0,24
8.17,1
8.25,41
8.5,47
8.75,56
9.0,53
9.08,1
9.25,62
9.33,1
9.5,62
9.67,1
9.75,82
9.91,1
9.92,1
10.0,98
10.16,1
10.17,1
10.25,93
10.33,2
10.42,1
10.5,157
10.75,167
10.83,2
10.9,1
10.91,1
10.92,1
11.0,176
11.16,1
11.17,4
11.25,209
11.33,3
11.41,2
11.42,2
11.5,207
11.66,1
11.67,3
11.74,1
11.75,268
11.83,4
11.91,1
11.92,2
12.0,325
12.08,3
12.16,2
12.17,1
12.25,309
12.33,3
12.41,1
12.42,2
12.5,386
12.58,5
12.67,3
12.75,402
12.83,6
12.91,1
12.92,1
13.0,438
13.08,5
13.16,2
13.17,1
13.25,487
13.33,4
13.41,1
13.42,3
13.5,521
13.58,6
13.66,3
13.67,3
13.75,576
13.83,8
13.9,1
13.91,3
13.92,4
13.95,1
14.0,607
14.08,10
14.1,1
14.16,5
14.17,7
14.25,631
14.28,1
14.33,4
14.41,1
14.42,4
14.5,714
14.58,2
14.66,3
14.67,2
14.75,795
14.83,3
14.9,1
14.91,4
14.92,6
15.0,846
15.08,5
15.16,2
15.17,2
15.25,851
15.28,1
15.33,5
15.41,1
15.42,5
15.5,866
15.58,5
15.67,4
15.75,904
15.83,5
15.91,3
15.92,4
16.0,969
16.08,8
16.16,2
16.17,6
16.25,951
16.33,9
16.41,1
16.42,6
16.5,981
16.58,7
16.67,2
16.75,944
16.83,12
16.91,2
16.92,7
17.0,994
17.08,8
17.16,1
17.17,4
17.25,986
17.33,9
17.41,5
17.42,3
17.5,1001
17.55,2
17.58,8
17.66,6
17.67,1
17.75,1025
17.83,11
17.91,3
17.92,5
17.98,1
18.0,1031
18.08,12
18.16,3
18.17,1
18.25,996
18.33,11
18.35,1
18.41,3
18.42,3
18.5,993
18.58,11
18.66,1
18.67,5
18.75,935
18.83,10
18.91,3
18.92,2
19.0,950
19.08,10
19.16,2
19.17,4
19.25,846
19.33,4
19.4,1
19.41,1
19.42,2
19.5,880
19.58,5
19.66,2
19.67,3
19.75,813
19.83,2
19.92,4
20.0,806
20.08,3
20.16,2
20.17,3
20.25,810
20.33,3
20.41,2
20.42,1
20.5,741
20.58,7
20.66,4
20.67,5
20.75,756
20.83,5
20.9,1
20.92,5
21.0,652
21.08,3
21.16,3
21.17,2
21.2,1
21.25,632
21.41,1
21.42,1
21.5,591
21.58,7
21.67,2
21.7,1
21.75,532
21.83,1
21.91,2
22.0,496
22.08,2
22.16,2
22.25,469
22.33,4
22.41,2
22.42,4
22.5,432
22.58,3
22.66,1
22.75,405
22.83,3
22.91,2
22.92,1
23.0,386
23.16,1
23.17,1
23.25,326
23.33,2
23.42,2
23.5,349
23.58,1
23.66,1
23.67,1
23.75,267
23.83,1
24.0,237
24.08,2
24.17,1
24.25,205
24.33,3
24.5,209
24.58,1
24.67,2
24.75,190
25.0,155
25.08,1
25.25,125
25.33,1
25.5,111
25.58,1
25.75,85
25.92,1
26.0,91
26.17,1
26.25,68
26.5,49
26.66,1
26.75,44
27.0,41
27.08,1
27.25,18
27.5,25
27.75,9
28.0,3
28.25,1
