score,count
4.25,1
4.3,1
4.35,1
4.65,2
5.0,1
5.15,1
5.25,2
5.3,2
5.45,2
5.5,4
5.55,1
5.6,1
5.65,1
5.7,7
5.75,1
5.8,5
5.85,8
5.9,5
5.95,1
6.0,4
6.05,3
6.1,10
6.15,6
6.2,8
6.25,8
6.3,8
6.35,10
6.36,1
6.4,13
6.45,14
6.5,15
6.55,10
6.6,9
6.65,18
6.7,16
6.75,11
6.8,15
6.85,12
6.9,13
6.95,19
7.0,18
7.05,27
7.1,19
7.15,17
7.2,29
7.25,16
7.3,27
7.35,25
7.4,32
7.45,17
7.5,32
7.55,30
7.6,42
7.65,23
7.7,48
7.75,38
7.8,42
7.85,43
7.9,47
7.95,46
8.0,44
8.05,49
8.1,48
8.13,1
8.15,53
8.2,52
8.25,64
8.3,61
8.35,62
8.4,66
8.45,61
8.47,1
8.5,66
8.55,65
8.6,81
8.65,71
8.66,1
8.7,95
8.75,92
8.8,97
8.85,82
8.9,104
8.95,81
9.0,132
9.05,108
9.1,94
9.15,86
9.16,1
9.18,1
9.2,101
9.25,89
9.3,141
9.35,110
9.4,150
9.45,134
9.5,138
9.55,118
9.6,162
9.63,2
9.65,138
9.7,165
9.75,135
9.8,158
9.85,151
9.87,1
9.9,160
9.95,126
9.96,1
10.0,199
10.03,1
10.05,183
10.07,1
10.1,195
10.11,1
10.15,183
10.2,228
10.25,172
10.28,2
10.3,196
10.35,164
10.36,1
10.4,236
10.41,1
10.45,194
10.5,215
10.51,1
10.55,176
10.6,254
10.65,223
10.7,240
10.73,1
10.75,220
10.78,1
10.8,277
10.83,1
10.85,222
10.9,256
10.91,2
10.93,1
10.95,245
11.0,311
11.03,1
11.05,302
11.1,294
11.15,271
11.2,345
11.25,290
11.3,328
11.35,278
11.4,399
11.45,291
11.5,345
11.53,2
11.55,285
11.56,2
11.57,1
11.6,357
11.65,312
11.7,400
11.72,1
11.75,295
11.8,437
11.81,1
11.85,338
11.87,1
11.88,1
11.9,410
11.93,2
11.94,1
11.95,345
11.97,1
11.98,1
12.0,481
12.05,361
12.06,1
12.1,442
12.13,1
12.15,404
12.17,1
12.2,487
12.22,1
12.25,409
12.27,1
12.3,497
12.32,1
12.35,422
12.37,1
12.4,516
12.41,1
12.45,410
12.5,540
12.52,1
12.53,1
12.55,413
12.58,1
12.6,583
12.63,2
12.65,461
12.67,1
12.68,1
12.7,527
12.75,449
12.8,611
12.81,2
12.85,473
12.88,2
12.9,600
12.95,493
13.0,645
13.03,1
13.05,566
13.07,1
13.1,597
13.13,1
13.15,547
13.2,675
13.21,1
13.25,575
13.28,2
13.29,1
13.3,665
13.31,1
13.33,3
13.35,569
13.38,1
13.4,675
13.45,580
13.47,1
13.48,2
13.5,709
13.52,1
13.53,1
13.55,543
13.56,1
13.57,1
13.6,766
13.62,1
13.65,622
13.67,1
13.68,1
13.7,741
13.75,617
13.78,1
13.8,769
13.85,636
13.88,1
13.9,781
13.95,644
13.97,1
14.0,853
14.01,1
14.03,1
14.05,652
14.1,784
14.12,2
14.15,740
14.18,1
14.2,871
14.25,678
14.3,815
14.33,1
14.35,726
14.37,1
14.38,1
14.4,895
14.41,1
14.42,1
14.45,797
14.46,2
14.5,810
14.52,2
14.55,756
14.58,1
14.6,987
14.61,2
14.62,1
14.63,1
14.65,799
14.67,1
14.7,915
14.71,1
14.75,758
14.78,1
14.8,1056
14.83,1
14.85,829
14.88,2
14.9,1007
14.93,2
14.95,846
15.0,1036
15.03,3
15.05,822
15.06,1
15.1,957
15.13,3
15.15,879
15.16,1
15.17,1
15.2,1054
15.22,2
15.25,923
15.27,1
15.3,1035
15.33,4
15.34,1
15.35,928
15.38,1
15.4,1022
15.42,1
15.45,949
15.48,1
15.5,1069
15.51,1
15.55,921
15.56,1
15.6,1080
15.65,956
15.68,1
15.7,1116
15.75,976
15.76,1
15.77,2
15.8,1139
15.82,1
15.83,1
15.85,994
15.86,2
15.9,1118
15.91,1
15.95,972
15.96,1
15.98,1
16.0,1182
16.03,2
16.05,934
16.1,1179
16.11,1
16.12,1
16.15,992
16.2,1176
16.21,1
16.23,2
16.25,1015
16.3,1236
16.33,1
16.35,1065
16.38,3
16.4,1173
16.42,1
16.43,1
16.45,1031
16.47,1
16.48,2
16.5,1259
16.55,1112
16.6,1389
16.61,1
16.63,1
16.65,1082
16.7,1273
16.75,1122
16.78,2
16.8,1336
16.83,3
16.85,1123
16.9,1326
16.93,1
16.95,1106
16.97,2
16.98,1
17.0,1478
17.05,1158
17.06,1
17.07,3
17.08,3
17.1,1328
17.11,1
17.13,1
17.15,1172
17.17,2
17.2,1374
17.23,1
17.25,1152
17.27,1
17.3,1355
17.33,1
17.35,1222
17.4,1375
17.43,1
17.45,1170
17.47,1
17.5,1366
17.53,1
17.55,1176
17.58,2
17.6,1447
17.62,1
17.63,2
17.65,1185
17.66,1
17.7,1438
17.73,1
17.75,1193
17.77,1
17.78,1
17.79,1
17.8,1477
17.81,1
17.85,1262
17.87,1
17.88,1
17.9,1414
17.91,1
17.93,2
17.95,1183
17.97,2
17.98,1
18.0,1411
18.05,1211
18.08,1
18.1,1444
18.15,1233
18.16,1
18.18,1
18.2,1431
18.21,1
18.22,1
18.25,1189
18.3,1340
18.35,1286
18.38,1
18.4,1481
18.45,1145
18.48,1
18.5,1420
18.51,1
18.53,1
18.55,1258
18.58,1
18.6,1479
18.62,2
18.65,1261
18.68,2
18.7,1413
18.73,1
18.75,1275
18.77,1
18.8,1429
18.85,1251
18.88,1
18.9,1424
18.95,1217
18.98,1
19.0,1478
19.05,1237
19.08,1
19.1,1452
19.15,1214
19.18,2
19.2,1511
19.22,1
19.25,1227
19.3,1365
19.31,1
19.32,1
19.35,1260
19.38,1
19.4,1445
19.41,1
19.43,1
19.45,1190
19.46,1
19.48,2
19.5,1388
19.51,1
19.52,2
19.55,1170
19.58,1
19.6,1454
19.61,1
19.65,1183
19.66,1
19.67,1
19.7,1377
19.72,1
19.75,1262
19.8,1446
19.82,1
19.83,2
19.85,1213
19.87,2
19.9,1391
19.92,1
19.93,2
19.95,1262
19.97,1
19.98,1
20.0,1420
20.02,1
20.03,1
20.05,1220
20.08,1
20.1,1410
20.11,1
20.13,1
20.15,1196
20.17,1
20.18,1
20.2,1403
20.22,1
20.23,1
20.25,1207
20.26,1
20.3,1391
20.33,3
20.35,1139
20.37,1
20.4,1401
20.45,1206
20.46,1
20.47,2
20.48,1
20.5,1339
20.51,1
20.52,1
20.55,1184
20.57,1
20.58,2
20.6,1360
20.62,1
20.65,1152
20.67,1
20.68,1
20.7,1329
20.73,2
20.75,1161
20.78,1
20.8,1357
20.81,3
20.82,1
20.85,1210
20.87,2
20.9,1302
20.93,1
20.95,1171
20.98,1
21.0,1375
21.01,1
21.02,1
21.05,1112
21.08,3
21.1,1343
21.12,1
21.13,2
21.15,1072
21.18,1
21.2,1355
21.23,1
21.25,1058
21.28,1
21.3,1344
21.35,1122
21.38,1
21.4,1441
21.42,1
21.45,1074
21.47,1
21.48,1
21.5,1341
21.53,1
21.55,1047
21.58,1
21.6,1279
21.63,1
21.65,1160
21.7,1312
21.75,1102
21.8,1366
21.83,1
21.85,1135
21.9,1293
21.95,1187
22.0,1296
22.05,1091
22.07,1
22.1,1250
22.15,1152
22.17,1
22.2,1384
22.22,3
22.23,1
22.25,1130
22.27,2
22.28,1
22.3,1290
22.35,1092
22.36,2
22.38,1
22.4,1282
22.43,1
22.45,1111
22.5,1218
22.55,1080
22.58,1
22.6,1394
22.62,1
22.65,1099
22.7,1289
22.75,1093
22.77,1
22.8,1355
22.85,1129
22.87,1
22.88,2
22.9,1319
22.92,1
22.95,1117
22.97,1
23.0,1309
23.05,1138
23.07,1
23.08,2
23.1,1295
23.15,1142
23.2,1377
23.23,1
23.25,1084
23.3,1287
23.31,1
23.33,2
23.35,1117
23.38,1
23.4,1347
23.45,1064
23.48,2
23.5,1326
23.52,1
23.53,1
23.54,1
23.55,1132
23.58,2
23.6,1344
23.62,1
23.65,1131
23.67,1
23.7,1306
23.71,1
23.72,1
23.73,3
23.75,1174
23.78,1
23.8,1355
23.82,1
23.83,1
23.85,1080
23.88,1
23.9,1256
23.93,2
23.95,1126
23.98,1
24.0,1377
24.02,2
24.05,1052
24.1,1303
24.12,1
24.13,1
24.15,1157
24.18,1
24.2,1342
24.22,1
24.23,2
24.25,1107
24.28,1
24.3,1320
24.31,1
24.35,1142
24.37,1
24.38,2
24.4,1393
24.43,1
24.45,1032
24.48,2
24.5,1323
24.52,1
24.53,2
24.55,1138
24.57,1
24.58,1
24.6,1365
24.63,2
24.65,1074
24.68,1
24.7,1242
24.75,1092
24.8,1340
24.82,1
24.83,1
24.85,1054
24.9,1254
24.95,983
25.0,1264
25.05,1015
25.06,2
25.07,1
25.1,1210
25.15,1010
25.17,1
25.2,1161
25.25,950
25.3,1148
25.32,1
25.35,969
25.4,1157
25.41,1
25.45,960
25.5,1070
25.55,932
25.6,1041
25.65,900
25.7,1033
25.72,1
25.75,869
25.8,963
25.82,2
25.85,796
25.88,2
25.9,992
25.92,1
25.95,816
25.98,1
26.0,834
26.05,722
26.1,874
26.13,1
26.15,696
26.2,786
26.23,1
26.25,593
26.3,735
26.35,658
26.38,1
26.4,696
26.43,1
26.45,492
26.5,671
26.55,582
26.57,1
26.58,1
26.6,565
26.65,408
26.7,526
26.75,475
26.8,514
26.85,311
26.9,427
26.95,396
27.0,421
27.05,237
27.1,331
27.15,332
27.2,317
27.25,184
27.3,220
27.35,222
27.4,251
27.45,157
27.5,135
27.55,170
27.6,189
27.65,73
27.7,55
27.75,120
27.8,153
27.85,80
27.9,34
27.95,36
28.0,85
28.05,33
28.1,12
28.15,13
28.2,21
28.25,27
28.3,16
28.35,6
28.4,11
28.45,12
28.5,12
28.55,1
28.6,2
28.65,2
28.7,6
28.75,1
28.9,2
28.95,2
29.1,2
