score,count
4.25,1
4.3,1
4.35,1
4.65,4
4.7,1
4.75,1
4.8,1
4.85,3
4.9,1
5.0,3
5.05,6
5.1,1
5.15,1
5.25,6
5.3,6
5.35,2
5.4,2
5.45,5
5.5,6
5.55,5
5.6,3
5.65,11
5.7,17
5.75,2
5.8,10
5.85,15
5.9,8
5.93,1
5.95,11
6.0,12
6.05,11
6.1,24
6.15,16
6.2,12
6.25,19
6.3,22
6.35,16
6.36,1
6.4,16
6.45,28
6.5,35
6.55,32
6.6,26
6.65,40
6.7,39
6.75,26
6.8,33
6.85,29
6.87,1
6.9,31
6.95,43
6.98,1
7.0,43
7.05,45
7.07,1
7.1,53
7.13,1
7.15,46
7.2,62
7.21,1
7.25,41
7.3,68
7.35,69
7.4,71
7.45,56
7.48,1
7.5,69
7.55,62
7.6,88
7.65,61
7.7,93
7.73,1
7.75,92
7.8,94
7.85,89
7.9,93
7.95,101
7.97,1
7.98,2
8.0,106
8.02,1
8.03,1
8.05,127
8.1,109
8.13,1
8.15,119
8.2,117
8.25,129
8.28,1
8.3,127
8.35,137
8.37,1
8.38,1
8.4,152
8.42,1
8.45,136
8.47,1
8.5,146
8.53,2
8.55,157
8.6,178
8.63,1
8.65,148
8.66,2
8.7,183
8.73,1
8.75,182
8.8,214
8.82,1
8.83,1
8.85,160
8.88,2
8.9,240
8.95,200
8.98,1
9.0,274
9.02,2
9.03,1
9.05,206
9.08,1
9.1,231
9.13,1
9.15,203
9.16,1
9.17,1
9.18,1
9.2,265
9.22,1
9.23,2
9.25,223
9.27,2
9.28,1
9.3,297
9.32,1
9.33,2
9.35,244
9.4,320
9.42,2
9.45,276
9.5,299
9.52,1
9.53,2
9.55,261
9.56,1
9.57,3
9.58,2
9.6,370
9.63,4
9.65,291
9.67,1
9.7,365
9.71,1
9.73,1
9.75,333
9.77,1
9.78,2
9.8,369
9.82,3
9.83,1
9.85,347
9.87,5
9.88,1
9.9,382
9.93,4
9.95,347
9.96,1
9.97,1
10.0,452
10.02,1
10.03,1
10.05,397
10.07,2
10.08,1
10.1,464
10.11,4
10.13,2
10.15,431
10.18,3
10.2,546
10.21,1
10.22,1
10.23,1
10.25,388
10.27,2
10.28,3
10.3,472
10.33,4
10.35,406
10.36,1
10.37,2
10.38,2
10.4,529
10.41,1
10.42,3
10.43,2
10.45,440
10.46,1
10.47,1
10.48,1
10.5,510
10.51,1
10.52,2
10.53,5
10.55,431
10.56,3
10.57,3
10.58,3
10.6,617
10.62,1
10.63,4
10.65,512
10.67,2
10.68,1
10.7,580
10.71,1
10.72,2
10.73,2
10.75,503
10.76,1
10.78,2
10.8,682
10.81,1
10.82,1
10.83,4
10.85,537
10.86,2
10.88,2
10.9,614
10.91,2
10.93,4
10.95,557
10.96,1
10.98,2
11.0,758
11.01,1
11.02,7
11.03,4
11.05,650
11.06,1
11.07,5
11.08,1
11.1,713
11.12,5
11.15,615
11.16,2
11.17,5
11.18,2
11.2,835
11.21,1
11.22,1
11.23,6
11.25,707
11.27,2
11.28,5
11.3,772
11.31,1
11.32,1
11.33,2
11.35,686
11.36,1
11.37,5
11.38,4
11.4,948
11.42,5
11.43,5
11.45,741
11.46,1
11.47,2
11.48,5
11.5,822
11.51,2
11.52,3
11.53,3
11.55,687
11.56,3
11.57,5
11.58,3
11.6,974
11.61,1
11.62,1
11.63,3
11.64,1
11.65,824
11.66,1
11.67,2
11.68,3
11.7,937
11.72,4
11.73,4
11.75,766
11.77,2
11.78,1
11.8,1097
11.81,3
11.82,2
11.83,5
11.85,897
11.87,5
11.88,5
11.9,1014
11.92,5
11.93,4
11.94,1
11.95,851
11.96,1
11.97,3
11.98,2
12.0,1188
12.02,3
12.03,3
12.05,952
12.06,1
12.07,4
12.08,3
12.1,1127
12.11,1
12.12,2
12.13,5
12.15,992
12.16,2
12.17,3
12.18,5
12.2,1292
12.21,2
12.22,2
12.23,7
12.25,1007
12.27,3
12.28,3
12.3,1199
12.32,3
12.33,11
12.35,1081
12.37,5
12.38,4
12.4,1422
12.41,2
12.42,2
12.43,5
12.45,1068
12.46,1
12.47,2
12.48,5
12.5,1311
12.51,2
12.52,3
12.53,1
12.55,1121
12.56,2
12.57,2
12.58,6
12.6,1453
12.61,1
12.62,2
12.63,7
12.65,1186
12.66,1
12.67,4
12.68,4
12.7,1330
12.72,3
12.73,2
12.75,1170
12.76,1
12.77,3
12.78,1
12.8,1593
12.81,3
12.82,5
12.83,6
12.85,1201
12.87,2
12.88,4
12.9,1523
12.92,3
12.93,1
12.95,1264
12.97,4
12.98,6
13.0,1673
13.01,2
13.02,4
13.03,4
13.05,1423
13.06,2
13.07,6
13.08,7
13.1,1567
13.11,3
13.12,2
13.13,7
13.15,1333
13.17,7
13.18,5
13.2,1812
13.21,3
13.22,7
13.23,7
13.25,1458
13.26,1
13.27,1
13.28,5
13.29,1
13.3,1694
13.31,4
13.32,4
13.33,10
13.35,1412
13.36,2
13.37,3
13.38,7
13.4,1815
13.41,1
13.42,5
13.43,7
13.45,1543
13.46,2
13.47,3
13.48,6
13.5,1836
13.51,2
13.52,4
13.53,10
13.55,1523
13.56,1
13.57,3
13.58,6
13.6,2002
13.61,2
13.62,6
13.63,5
13.65,1627
13.67,6
13.68,10
13.7,1977
13.71,1
13.72,3
13.73,7
13.75,1575
13.76,1
13.77,6
13.78,9
13.8,2007
13.81,1
13.82,6
13.83,3
13.85,1776
13.86,1
13.87,9
13.88,5
13.89,1
13.9,2061
13.91,3
13.92,9
13.93,15
13.95,1772
13.96,1
13.97,5
13.98,11
14.0,2228
14.01,1
14.02,4
14.03,6
14.05,1788
14.06,1
14.07,6
14.08,11
14.1,2108
14.11,2
14.12,4
14.13,11
14.15,1871
14.17,7
14.18,10
14.2,2312
14.22,5
14.23,10
14.25,1854
14.26,1
14.27,4
14.28,5
14.3,2232
14.32,10
14.33,12
14.35,1956
14.37,10
14.38,7
14.4,2448
14.41,2
14.42,8
14.43,12
14.45,2000
14.46,3
14.47,3
14.48,7
14.5,2252
14.51,1
14.52,6
14.53,10
14.55,2027
14.57,4
14.58,10
14.6,2596
14.61,4
14.62,15
14.63,11
14.65,2136
14.66,3
14.67,6
14.68,9
14.7,2463
14.71,2
14.72,6
14.73,7
14.75,2093
14.76,4
14.77,7
14.78,11
14.8,2717
14.81,4
14.82,11
14.83,13
14.85,2221
14.86,1
14.87,5
14.88,9
14.9,2588
14.91,2
14.92,4
14.93,13
14.95,2250
14.96,2
14.97,5
14.98,5
15.0,2839
15.02,5
15.03,14
15.05,2293
15.06,1
15.07,6
15.08,6
15.1,2626
15.11,2
15.12,8
15.13,13
15.15,2367
15.16,2
15.17,3
15.18,11
15.2,2862
15.21,1
15.22,10
15.23,8
15.25,2430
15.26,1
15.27,6
15.28,12
15.3,2846
15.31,1
15.32,12
15.33,22
15.34,1
15.35,2392
15.36,2
15.37,7
15.38,10
15.4,2921
15.41,1
15.42,9
15.43,9
15.45,2527
15.47,5
15.48,17
15.5,2906
15.51,3
15.52,5
15.53,5
15.54,1
15.55,2544
15.56,4
15.57,10
15.58,12
15.6,2968
15.61,2
15.62,13
15.63,10
15.65,2528
15.67,4
15.68,13
15.7,2994
15.71,2
15.72,2
15.73,11
15.75,2668
15.76,2
15.77,11
15.78,10
15.8,3136
15.81,3
15.82,10
15.83,10
15.84,1
15.85,2683
15.86,5
15.87,7
15.88,9
15.9,3111
15.91,5
15.92,8
15.93,4
15.95,2670
15.96,2
15.97,9
15.98,7
15.99,1
16.0,3299
16.01,2
16.02,12
16.03,9
16.05,2633
16.06,2
16.07,7
16.08,10
16.1,3191
16.11,2
16.12,17
16.13,7
16.15,2703
16.16,2
16.17,6
16.18,12
16.2,3296
16.21,4
16.22,8
16.23,16
16.25,2909
16.27,5
16.28,10
16.3,3253
16.31,2
16.32,8
16.33,8
16.35,2840
16.37,9
16.38,10
16.4,3449
16.41,2
16.42,13
16.43,10
16.45,2821
16.46,3
16.47,13
16.48,10
16.5,3429
16.51,2
16.52,10
16.53,20
16.55,3004
16.56,2
16.57,14
16.58,12
16.6,3692
16.61,4
16.62,7
16.63,10
16.65,2995
16.66,2
16.67,10
16.68,7
16.7,3486
16.71,2
16.72,11
16.73,11
16.75,3019
16.76,3
16.77,8
16.78,13
16.8,3592
16.82,4
16.83,15
16.85,3044
16.87,7
16.88,9
16.9,3436
16.91,1
16.92,11
16.93,15
16.94,1
16.95,2968
16.96,3
16.97,7
16.98,20
17.0,3879
17.01,1
17.02,11
17.03,13
17.05,3118
17.06,5
17.07,14
17.08,12
17.1,3655
17.11,3
17.12,8
17.13,12
17.15,3172
17.17,10
17.18,13
17.2,3720
17.21,1
17.22,10
17.23,10
17.25,3064
17.26,5
17.27,10
17.28,11
17.3,3658
17.31,1
17.32,5
17.33,17
17.35,3219
17.36,2
17.37,7
17.38,11
17.4,3693
17.41,3
17.42,12
17.43,9
17.45,3155
17.47,9
17.48,9
17.5,3726
17.51,1
17.52,12
17.53,8
17.55,3155
17.56,1
17.57,6
17.58,14
17.6,4002
17.61,2
17.62,14
17.63,10
17.65,3176
17.66,3
17.67,10
17.68,13
17.7,3764
17.72,7
17.73,13
17.75,3300
17.76,2
17.77,11
17.78,17
17.79,1
17.8,3834
17.81,5
17.82,9
17.83,15
17.85,3371
17.87,10
17.88,14
17.9,3802
17.91,4
17.92,16
17.93,9
17.95,3186
17.96,1
17.97,10
17.98,14
17.99,1
18.0,3944
18.01,3
18.02,15
18.03,12
18.05,3200
18.06,2
18.07,10
18.08,11
18.1,3825
18.11,5
18.12,11
18.13,10
18.15,3272
18.16,2
18.17,10
18.18,9
18.2,3952
18.21,2
18.22,13
18.23,3
18.25,3321
18.26,1
18.27,13
18.28,13
18.3,3728
18.31,1
18.32,10
18.33,11
18.34,1
18.35,3410
18.36,1
18.37,11
18.38,9
18.4,4021
18.41,3
18.42,2
18.43,4
18.45,3168
18.46,1
18.47,7
18.48,9
18.5,3930
18.51,4
18.52,7
18.53,9
18.55,3411
18.56,2
18.57,15
18.58,9
18.6,4012
18.62,10
18.63,18
18.65,3356
18.66,3
18.67,4
18.68,6
18.7,3768
18.71,3
18.72,6
18.73,8
18.75,3444
18.76,1
18.77,9
18.78,14
18.8,3956
18.81,3
18.82,9
18.83,15
18.85,3350
18.86,1
18.87,8
18.88,14
18.9,3842
18.91,2
18.92,14
18.93,11
18.95,3351
18.96,2
18.97,9
18.98,13
19.0,4049
19.01,2
19.02,6
19.03,13
19.05,3281
19.06,2
19.07,9
19.08,9
19.1,3935
19.11,2
19.12,7
19.13,14
19.15,3320
19.16,2
19.17,7
19.18,10
19.2,4076
19.21,2
19.22,10
19.23,7
19.25,3289
19.26,1
19.27,7
19.28,11
19.3,3820
19.31,3
19.32,8
19.33,9
19.35,3386
19.36,1
19.37,6
19.38,10
19.4,4037
19.41,2
19.42,10
19.43,15
19.45,3232
19.46,5
19.47,13
19.48,12
19.5,3890
19.51,3
19.52,12
19.53,10
19.55,3313
19.56,4
19.57,8
19.58,7
19.6,3935
19.61,2
19.62,5
19.63,8
19.65,3248
19.66,1
19.67,13
19.68,15
19.7,3791
19.71,1
19.72,5
19.73,11
19.75,3364
19.77,10
19.78,5
19.8,3885
19.81,3
19.82,4
19.83,10
19.85,3249
19.86,1
19.87,11
19.88,16
19.9,3802
19.92,20
19.93,11
19.95,3272
19.96,2
19.97,11
19.98,5
20.0,3933
20.01,1
20.02,13
20.03,8
20.05,3288
20.06,3
20.07,16
20.08,7
20.1,3750
20.11,2
20.12,6
20.13,5
20.15,3309
20.17,11
20.18,15
20.2,3958
20.21,1
20.22,15
20.23,3
20.25,3185
20.26,2
20.27,8
20.28,10
20.3,3763
20.31,1
20.32,9
20.33,9
20.35,3222
20.36,2
20.37,9
20.38,7
20.4,3944
20.41,4
20.42,10
20.43,10
20.45,3168
20.46,2
20.47,10
20.48,16
20.5,3745
20.51,3
20.52,11
20.53,7
20.55,3211
20.56,3
20.57,9
20.58,9
20.6,3797
20.61,2
20.62,12
20.63,9
20.65,3142
20.67,12
20.68,8
20.7,3653
20.71,3
20.72,6
20.73,14
20.74,1
20.75,3179
20.76,1
20.77,4
20.78,15
20.8,3777
20.81,5
20.82,8
20.83,10
20.85,3229
20.86,1
20.87,8
20.88,11
20.9,3751
20.91,1
20.92,1
20.93,13
20.95,3270
20.96,3
20.97,8
20.98,14
21.0,3949
21.01,2
21.02,10
21.03,5
21.05,3117
21.06,2
21.07,10
21.08,10
21.1,3665
21.12,14
21.13,13
21.15,3032
21.16,1
21.17,9
21.18,11
21.2,3832
21.21,1
21.22,7
21.23,10
21.25,3035
21.26,3
21.27,11
21.28,8
21.3,3746
21.31,2
21.32,7
21.33,8
21.35,3149
21.36,4
21.37,9
21.38,11
21.4,3883
21.42,9
21.43,9
21.45,2997
21.46,1
21.47,6
21.48,10
21.5,3717
21.52,5
21.53,9
21.55,3104
21.56,3
21.57,8
21.58,16
21.6,3597
21.62,10
21.63,9
21.65,3186
21.66,1
21.67,7
21.68,10
21.7,3597
21.71,3
21.72,9
21.73,12
21.74,1
21.75,3117
21.76,1
21.77,8
21.78,8
21.8,3820
21.81,1
21.82,3
21.83,14
21.85,3049
21.86,2
21.87,7
21.88,10
21.9,3644
21.91,1
21.92,8
21.93,6
21.95,3151
21.96,1
21.97,9
21.98,17
22.0,3755
22.01,1
22.02,6
22.03,6
22.05,3030
22.07,9
22.08,11
22.1,3482
22.11,1
22.12,7
22.13,15
22.15,3074
22.17,12
22.18,5
22.2,3764
22.21,2
22.22,9
22.23,10
22.25,3096
22.26,1
22.27,9
22.28,3
22.3,3611
22.31,2
22.32,4
22.33,8
22.35,3204
22.36,4
22.37,10
22.38,13
22.4,3630
22.41,2
22.42,9
22.43,9
22.45,3009
22.46,2
22.47,7
22.48,4
22.5,3450
22.51,1
22.52,4
22.53,6
22.55,2968
22.56,1
22.57,5
22.58,14
22.6,3755
22.62,10
22.63,7
22.65,2982
22.66,1
22.67,6
22.68,8
22.7,3517
22.71,3
22.72,4
22.73,2
22.75,2970
22.76,1
22.77,11
22.78,10
22.8,3625
22.81,1
22.82,9
22.83,5
22.85,3018
22.86,3
22.87,5
22.88,8
22.9,3524
22.92,8
22.93,11
22.95,3061
22.97,6
22.98,5
23.0,3617
23.01,1
23.02,3
23.03,3
23.05,2999
23.06,1
23.07,9
23.08,14
23.1,3369
23.11,1
23.12,10
23.13,5
23.15,3009
23.16,2
23.17,8
23.18,8
23.2,3593
23.21,4
23.22,10
23.23,10
23.25,2880
23.26,1
23.27,4
23.28,7
23.3,3393
23.31,1
23.32,8
23.33,10
23.35,2949
23.36,1
23.37,3
23.38,6
23.4,3470
23.42,7
23.43,7
23.45,2824
23.46,2
23.47,3
23.48,6
23.5,3366
23.51,1
23.52,4
23.53,9
23.54,1
23.55,3000
23.56,4
23.57,7
23.58,13
23.6,3476
23.61,1
23.62,6
23.63,8
23.65,2888
23.67,9
23.68,11
23.7,3346
23.71,3
23.72,8
23.73,13
23.75,2863
23.77,4
23.78,16
23.8,3411
23.82,8
23.83,9
23.85,2787
23.86,3
23.87,6
23.88,10
23.9,3096
23.91,2
23.92,7
23.93,7
23.95,2790
23.96,3
23.97,6
23.98,15
24.0,3297
24.01,1
24.02,5
24.03,7
24.05,2572
24.07,4
24.08,4
24.1,3099
24.11,2
24.12,3
24.13,6
24.15,2807
24.16,1
24.17,5
24.18,8
24.2,3100
24.21,1
24.22,6
24.23,8
24.25,2640
24.27,4
24.28,8
24.3,3108
24.31,2
24.32,4
24.33,4
24.35,2720
24.36,1
24.37,6
24.38,10
24.4,3106
24.41,1
24.42,8
24.43,6
24.45,2433
24.47,5
24.48,9
24.5,2959
24.51,3
24.52,5
24.53,6
24.55,2609
24.56,2
24.57,8
24.58,2
24.6,3091
24.61,1
24.62,4
24.63,6
24.65,2436
24.67,2
24.68,4
24.7,2805
24.72,3
24.73,5
24.75,2501
24.76,1
24.77,5
24.78,5
24.8,2831
24.81,1
24.82,5
24.83,5
24.85,2260
24.86,1
24.87,7
24.88,2
24.9,2653
24.91,1
24.92,3
24.93,5
24.95,2202
24.97,7
24.98,5
25.0,2685
25.02,4
25.03,2
25.05,2176
25.06,2
25.07,3
25.1,2489
25.12,3
25.13,3
25.15,2128
25.17,3
25.18,1
25.2,2517
25.21,1
25.22,2
25.23,2
25.25,1986
25.27,4
25.28,5
25.3,2280
25.32,2
25.33,2
25.35,1968
25.38,2
25.4,2321
25.41,2
25.42,4
25.43,4
25.45,1853
25.47,4
25.48,3
25.5,2126
25.52,2
25.53,9
25.55,1831
25.56,1
25.58,3
25.6,2044
25.62,2
25.63,5
25.65,1685
25.67,2
25.7,1882
25.71,1
25.72,3
25.73,4
25.75,1639
25.76,1
25.77,1
25.8,1843
25.82,4
25.83,3
25.85,1451
25.88,3
25.9,1735
25.92,1
25.93,4
25.95,1486
25.97,1
25.98,3
26.0,1578
26.05,1284
26.08,2
26.1,1497
26.12,1
26.13,3
26.15,1230
26.17,1
26.18,3
26.2,1440
26.22,2
26.23,2
26.25,1028
26.28,1
26.3,1234
26.32,1
26.33,1
26.35,1077
26.37,1
26.38,1
26.4,1216
26.42,2
26.43,1
26.45,875
26.47,1
26.48,2
26.5,1088
26.52,1
26.55,946
26.57,3
26.58,1
26.6,1021
26.62,1
26.65,711
26.68,1
26.7,838
26.72,1
26.75,765
26.77,1
26.78,1
26.8,849
26.85,540
26.9,659
26.95,606
27.0,686
27.02,1
27.05,426
27.1,477
27.12,1
27.15,483
27.2,513
27.25,317
27.3,343
27.35,329
27.4,371
27.45,258
27.5,230
27.55,235
27.6,289
27.65,136
27.7,113
27.75,169
27.8,218
27.85,120
27.9,73
27.95,58
28.0,120
28.05,64
28.1,41
28.15,18
28.2,38
28.25,46
28.3,35
28.35,10
28.4,17
28.45,15
28.5,20
28.55,6
28.6,3
28.65,3
28.7,16
28.75,1
28.85,2
28.9,2
28.95,4
29.1,2
29.15,1
